<svg xmlns="http://www.w3.org/2000/svg" width="89.84" height="89.84" viewBox="0 0 89.84 89.84">
  <metadata><?xpacket begin="﻿" id="W5M0MpCehiHzreSzNTczkc9d"?>
<x:xmpmeta xmlns:x="adobe:ns:meta/" x:xmptk="Adobe XMP Core 5.6-c138 79.159824, 2016/09/14-01:09:01        ">
   <rdf:RDF xmlns:rdf="http://www.w3.org/1999/02/22-rdf-syntax-ns#">
      <rdf:Description rdf:about=""/>
   </rdf:RDF>
</x:xmpmeta>
                                                                                                    
                                                                                                    
                                                                                                    
                                                                                                    
                                                                                                    
                                                                                                    
                                                                                                    
                                                                                                    
                                                                                                    
                                                                                                    
                                                                                                    
                                                                                                    
                                                                                                    
                                                                                                    
                                                                                                    
                                                                                                    
                                                                                                    
                                                                                                    
                                                                                                    
                                                                                                    
                           
<?xpacket end="w"?></metadata>
<defs>
    <style>
      .cls-1 {
        fill: #afafaf;
        fill-rule: evenodd;
      }
    </style>
  </defs>
  <path id="moneyback" class="cls-1" d="M1214.31,1281.84a5.994,5.994,0,0,1-5.99-5.99,1.5,1.5,0,0,0-1.49-1.5h-47.91a1.5,1.5,0,0,0-1.5,1.5,5.988,5.988,0,0,1-5.99,5.99,1.5,1.5,0,0,0-1.49,1.5v11.98a1.494,1.494,0,0,0,1.49,1.49,5.994,5.994,0,0,1,5.99,5.99,1.5,1.5,0,0,0,1.5,1.5h47.91a1.5,1.5,0,0,0,1.49-1.5,6,6,0,0,1,5.99-5.99,1.5,1.5,0,0,0,1.5-1.49v-11.98A1.5,1.5,0,0,0,1214.31,1281.84Zm-1.5,12.1a9.035,9.035,0,0,0-7.36,7.37h-45.16a9.011,9.011,0,0,0-7.36-7.37v-9.23a8.988,8.988,0,0,0,7.36-7.36h45.16a9.012,9.012,0,0,0,7.36,7.36v9.23Zm-29.94-12.1a7.485,7.485,0,1,0,7.49,7.49A7.49,7.49,0,0,0,1182.87,1281.84Zm0,11.98a4.49,4.49,0,1,1,4.49-4.49A4.5,4.5,0,0,1,1182.87,1293.82Zm49.41-37.43h-74.86a1.5,1.5,0,0,0-1.5,1.49v4.5h-4.49a1.494,1.494,0,0,0-1.49,1.49v4.5h-4.5a1.487,1.487,0,0,0-1.49,1.49v38.93a1.5,1.5,0,0,0,1.49,1.5h74.86a1.5,1.5,0,0,0,1.5-1.5v-4.49h4.49a1.5,1.5,0,0,0,1.5-1.5v-4.49h4.49a1.5,1.5,0,0,0,1.49-1.5v-38.93A1.494,1.494,0,0,0,1232.28,1256.39Zm-13.48,46.41v4.5h-71.86v-35.94h71.86v31.44Zm5.99-1.49h-2.99v-31.45a1.49,1.49,0,0,0-1.5-1.49h-67.37v-3h71.86v35.94Zm5.99-5.99h-2.99v-31.45a1.5,1.5,0,0,0-1.5-1.49h-67.37v-3h71.86v35.94Zm2.39,33.24-17.96-13.48a1.508,1.508,0,0,0-1.57-.14,1.488,1.488,0,0,0-.83,1.34v5.99h-23.95a1.5,1.5,0,0,0-1.5,1.5v11.97a1.5,1.5,0,0,0,1.5,1.5h23.95v7.49a1.484,1.484,0,0,0,.87,1.35,1.381,1.381,0,0,0,.63.14,1.484,1.484,0,0,0,.96-0.34l17.97-14.97A1.505,1.505,0,0,0,1233.17,1328.56Zm-17.36,12.97v-5.79a1.5,1.5,0,0,0-1.5-1.49h-23.95v-8.99h23.95a1.5,1.5,0,0,0,1.5-1.49v-4.5l14.05,10.55Zm-32.94-19.26h-5.99a1.5,1.5,0,0,0-1.49,1.5v11.97a1.5,1.5,0,0,0,1.49,1.5h5.99a1.5,1.5,0,0,0,1.5-1.5v-11.97A1.5,1.5,0,0,0,1182.87,1322.27Zm-1.49,11.98h-3v-8.99h3v8.99Zm-13.48-11.98h-5.99a1.49,1.49,0,0,0-1.49,1.5v11.97a1.49,1.49,0,0,0,1.49,1.5h5.99a1.5,1.5,0,0,0,1.5-1.5v-11.97A1.5,1.5,0,0,0,1167.9,1322.27Zm-1.5,11.98h-2.99v-8.99h2.99v8.99Zm-14.97-11.98h-5.99a1.5,1.5,0,0,0-1.49,1.5v11.97a1.5,1.5,0,0,0,1.49,1.5h5.99a1.5,1.5,0,0,0,1.5-1.5v-11.97A1.5,1.5,0,0,0,1151.43,1322.27Zm-1.49,11.98h-3v-8.99h3v8.99Z" transform="translate(-1143.94 -1256.38)"/>
</svg>
